1=04059e66fb46791608e417702cfc76fc9c75a217
2=5a663f2231a65317fe6292c5b1aa7790819ecbd7
3=992d26502f95fca0d0a653ec2c7ecdb76a8b1780
4=c4949e0425f60371e90c8338b411c2ce4aebcc2a
5=d1c4e521cd779b7557f0baf99ee29f00d2bd3a02
6=60581f547a7a4fb4382865e838f198f86dfd0815
7=5518b41670b356f4436abb1863bee32f8fb4bdbb
8=d377511cdd9c1edeff0ee2581b4953ac2a37b89f
9=a32c9a4446d8585dca5582189e3959f55ed9c847
10=d34c1f2a25874c172ea6f5b4e387abc50c643e73
11=f01ff7deaa62382e47d4af96c2f1c27aeea5708a
12=9e6bc61cca0eaf8be9dd8e26413c26c1df928a0a
13=a75678a2c731f2528577b5bd8e167ca821d33e5c
14=f0c5144b3ca54e78e3eb1accebe2424c928c32f1